<?xml version="1.0" standalone="no"?>
<!DOCTYPE svg PUBLIC "-//W3C//DTD SVG 1.1//EN" "http://www.w3.org/Graphics/SVG/1.1/DTD/svg11.dtd" >
<svg xmlns="http://www.w3.org/2000/svg">
<metadata>Generated by IcoMoon</metadata>
<defs>
<font id="icomoon" horiz-adv-x="1024">
<font-face units-per-em="1024" ascent="960" descent="-64" />
<missing-glyph horiz-adv-x="1024" />
<glyph unicode="&#x20;" horiz-adv-x="512" d="" />
<glyph unicode="&#xe800;" glyph-name="logout" horiz-adv-x="950" d="M29.687 289.84v376.32q0 64.32 45.121 109.441t109.439 45.121h170.881q7.681 0 12.48-4.8t4.8-12.48q0-1.919 0.96-10.56t0-14.4-1.919-12.48-4.8-10.56-11.52-2.88h-170.881q-35.52 0-60.48-25.92t-25.92-60.48v-376.32q0-35.52 25.92-60.48t60.48-25.92h167.041t5.761 0 6.72-1.919 3.84-2.88 3.84-4.8 0.96-7.681q0-1.919 0.96-10.56t0-13.441-1.919-13.441-4.8-10.56-11.52-2.88h-170.881q-64.32 0-109.441 45.119t-45.121 109.441zM235.127 375.28v205.441q0 14.4 10.56 24t24 10.56h240.001v154.56q0 13.441 10.56 24t24 9.601 24-9.601l290.881-291.84q10.56-9.601 10.56-24t-10.56-24l-290.879-291.84q-10.56-9.601-24-9.601t-24 9.601-10.56 24v154.56h-240.001q-13.441 0-24 10.56t-10.56 24z" />
<glyph unicode="&#xe801;" glyph-name="down" horiz-adv-x="594" d="M577.536 489.728l-239.616-229.376q-18.432-18.432-40.96-18.432t-40.96 18.432l-239.616 229.376q-16.384 16.384-16.384 41.984t16.384 41.984q38.912 38.912 79.872 0l200.704-192.512 200.704 192.512q40.96 38.912 79.872 0 16.384-16.384 16.384-41.984t-16.384-41.984z" />
<glyph unicode="&#xe802;" glyph-name="left" horiz-adv-x="349" d="M247.808 730.624q14.336 16.384 39.936 16.384t41.984-16.384q38.912-36.864 0-81.92l-190.464-200.704 190.464-198.656q38.912-45.056 0-81.92-16.384-16.384-40.96-16.384t-40.96 16.384l-231.424 241.664q-16.384 16.384-16.384 38.912 0 24.576 16.384 40.96 210.944 219.136 231.424 241.664z" />
<glyph unicode="&#xe803;" glyph-name="right" horiz-adv-x="348" d="M100.352 730.624l231.424-241.664q16.384-16.384 16.384-40.96 0-22.528-16.384-38.912l-231.424-241.664q-16.384-16.384-40.96-16.384t-40.96 16.384q-36.864 36.864 0 81.92l190.464 198.656-190.464 200.704q-36.864 45.056 0 81.92 16.384 16.384 41.984 16.384t39.936-16.384z" />
<glyph unicode="&#xe804;" glyph-name="up" horiz-adv-x="594" d="M577.536 376.32q16.384-16.384 16.384-41.984t-16.384-41.984q-38.912-38.912-79.872 0l-200.704 192.512-200.704-192.512q-40.96-38.912-79.872 0-16.384 16.384-16.384 41.984t16.384 41.984l239.616 229.376q16.384 16.384 40.96 16.384t40.96-16.384z" />
<glyph unicode="&#xe805;" glyph-name="views" d="M0 448q6.144 50.176 65.536 112.64 80.896 81.92 180.224 132.096 132.096 61.44 266.24 61.44 140.288-2.048 266.24-61.44 105.472-54.272 180.224-132.096 65.536-74.752 65.536-112.64-6.144-50.176-65.536-111.616-80.896-81.92-180.224-132.096-132.096-62.464-266.24-62.464-140.288 2.048-266.24 62.464-105.472 54.272-180.224 132.096-65.536 73.728-65.536 111.616zM270.336 448q0-96.256 70.656-162.816t171.008-66.56 171.008 66.56 70.656 162.816-70.656 162.816-171.008 67.584-171.008-67.584-70.656-162.816zM358.4 449.024q0 61.44 45.056 104.448t108.544 43.008 108.544-43.008 45.056-104.448-45.056-104.448-108.544-44.032-108.544 44.032-45.056 104.448z" />
<glyph unicode="&#xe806;" glyph-name="menu-down" d="M51.2 524.8q0 14.336 11.264 25.6l94.208 94.208q11.264 11.264 26.624 11.264t25.6-11.264l303.104-303.104 303.104 303.104q11.264 11.264 25.6 11.264t26.624-11.264l94.208-94.208q11.264-11.264 11.264-25.6t-11.264-26.624l-423.936-422.912q-10.24-11.264-25.6-11.264t-25.6 11.264l-423.936 422.912q-11.264 11.264-11.264 26.624z" />
<glyph unicode="&#xe807;" glyph-name="menu-left" horiz-adv-x="731" d="M24.064 436.864q0 14.336 11.264 25.6l423.936 423.936q10.24 10.24 25.6 10.24t25.6-10.24l94.208-95.232q11.264-10.24 11.264-25.6t-11.264-25.6l-303.104-303.104 303.104-304.128q11.264-10.24 11.264-25.6t-11.264-25.6l-94.208-95.232q-11.264-10.24-25.6-10.24t-25.6 10.24l-423.936 424.96q-11.264 10.24-11.264 25.6z" />
<glyph unicode="&#xe808;" glyph-name="menu-right" horiz-adv-x="731" d="M88.533 107.136q0 15.36 11.264 25.6l303.104 304.128-303.104 303.104q-11.264 11.264-11.264 25.6t11.264 25.6l94.208 95.232q11.264 10.24 26.624 10.24t25.6-10.24l423.936-423.936q10.24-11.264 10.24-25.6t-10.24-25.6l-423.936-423.936q-11.264-11.264-25.6-11.264t-26.624 11.264l-94.208 94.208q-11.264 11.264-11.264 25.6z" />
<glyph unicode="&#xe809;" glyph-name="menu-up" d="M51.2 225.792q0 14.336 11.264 25.6l423.936 423.936q11.264 10.24 25.6 10.24t25.6-10.24l423.936-423.936q11.264-11.264 11.264-25.6t-11.264-26.624l-94.208-94.208q-11.264-10.24-26.624-10.24t-25.6 10.24l-303.104 304.128-303.104-304.128q-11.264-10.24-25.6-10.24t-26.624 10.24l-94.208 94.208q-11.264 11.264-11.264 26.624z" />
<glyph unicode="&#xe80a;" glyph-name="search" horiz-adv-x="913" d="M11.264 473.6q-23.552 89.088 0 177.152t89.088 153.6q49.152 49.152 112.64 75.776t131.072 25.6q66.56 0 130.048-25.6t112.64-75.776q53.248-53.248 78.848-121.856t21.504-140.288-36.864-135.168q28.672-8.192 50.176-29.696l178.176-177.152q35.84-36.864 35.84-87.040t-35.84-87.040q-35.84-35.84-87.040-35.84t-87.040 35.84l-177.152 178.176q-22.528 20.48-30.72 50.176-71.68-35.84-152.576-35.84-67.584 0-131.072 25.6t-112.64 74.752q-65.536 65.536-89.088 154.624zM114.688 561.664q0-95.232 66.56-161.792 67.584-66.56 162.816-66.56 94.208 0 160.768 66.56t67.584 161.792-67.584 161.792q-67.584 67.584-160.768 67.584-94.208 0-162.816-67.584-66.56-66.56-66.56-161.792z" />
<glyph unicode="&#xe80b;" glyph-name="user" horiz-adv-x="1000" d="M0-32.256q0 9.216 1.024 23.552t11.264 45.056 26.624 49.152q17.408 17.408 66.56 37.888t110.592 43.008 92.16 36.864q36.864 18.432 56.32 55.296t20.48 74.752q0 27.648-31.744 63.488-18.432 21.504-31.744 60.416-45.056 18.432-45.056 73.728 0 41.984 15.36 60.416-4.096 27.648-9.216 81.92-1.024 8.192-2.048 21.504t2.048 45.056 15.36 54.272q19.456 33.792 48.128 46.080t48.128 5.12q1.024 0 1.024 0 1.024 5.12 4.096 13.312t14.336 22.528 25.6 20.48q8.192 4.096 25.6 6.144t44.032 1.024 53.248-8.192 55.296-21.504 50.176-38.912 35.84-60.416 15.36-86.016q0-10.24 0-20.48-4.096-46.080-9.216-81.92 14.336-18.432 14.336-60.416 0-55.296-45.056-73.728-13.312-38.912-31.744-60.416-31.744-35.84-31.744-63.488 0-38.912 20.48-74.752t56.32-55.296q29.696-15.36 92.16-36.864t111.616-43.008 65.536-37.888q18.432-17.408 27.648-46.080t10.24-51.2l1.024-20.48h-1000.448z" />
<glyph unicode="&#xe80c;" glyph-name="comments" horiz-adv-x="1331" d="M0 847.36c0 55.296 70.656 112.64 125.952 112.64h785.408c55.296 0 112.64-59.392 112.64-114.688v-387.072c0-55.296-39.936-112.64-95.232-112.64h-416.768l-307.2-204.8v168.96c0 26.624-17.408 35.84-44.032 35.84h-56.32c-55.296 0-104.448 57.344-104.448 112.64v389.12zM1126.4 857.6v-501.76c0-55.296-39.936-112.64-95.232-112.64h-309.248l302.080-307.2v204.8h212.992c54.272 0 94.208 57.344 94.208 111.616v519.168c0 54.272-39.936 86.016-94.208 86.016h-110.592z" />
<glyph unicode="&#xe80d;" glyph-name="mobile" d="M0-64v256h256v-256h-256zM0 320v256h256v-256h-256zM0 704v256h256v-256h-256zM384-64v256h256v-256h-256zM384 320v256h256v-256h-256zM384 704v256h256v-256h-256zM768-64v256h256v-256h-256zM768 320v256h256v-256h-256zM768 704v256h256v-256h-256z" />
<glyph unicode="&#xe80e;" glyph-name="category" horiz-adv-x="1099" d="M69.632 153.088q0-30.72 21.504-52.224t52.224-21.504h812.032q30.72 0 52.224 21.504t21.504 52.224-21.504 52.224-52.224 21.504h-812.032q-29.696 0-52.224-21.504t-21.504-52.224zM69.632 448q0-30.72 21.504-52.224t52.224-21.504h812.032q30.72 0 52.224 21.504t21.504 52.224-21.504 52.224-52.224 21.504h-812.032q-29.696 0-52.224-21.504t-21.504-52.224zM69.632 742.912q0-30.72 21.504-52.224t52.224-21.504h812.032q30.72 0 52.224 21.504t21.504 52.224-21.504 52.224-52.224 21.504h-812.032q-29.696 0-52.224-21.504t-21.504-52.224z" />
<glyph unicode="&#xe80f;" glyph-name="star" horiz-adv-x="950" d="M0 590.336q0 21.504 31.744 26.624l286.72 40.96 129.024 260.096q11.264 23.552 27.648 23.552t28.672-23.552l128-260.096 286.72-40.96q32.768-5.12 32.768-26.624 0-12.288-15.36-27.648l-207.872-201.728 49.152-285.696q1.024-4.096 1.024-12.288 0-11.264-6.144-19.456t-17.408-9.216q-10.24 0-22.528 7.168l-257.024 135.168-256-135.168q-13.312-7.168-23.552-7.168-11.264 0-17.408 9.216t-6.144 19.456q0 4.096 1.024 12.288l49.152 285.696-207.872 201.728q-14.336 15.36-14.336 27.648z" />
<glyph unicode="&#xe810;" glyph-name="mail-1" d="M0 100.864v621.568q0 37.888 26.624 64.512t64.512 26.624h841.728q37.888 0 64.512-26.624t26.624-64.512v-621.568q0-37.888-26.624-64.512t-64.512-27.648h-841.728q-36.864 0-64.512 27.648t-26.624 64.512zM72.704 100.864q0-8.192 6.144-13.312t12.288-5.12h841.728q7.168 0 12.288 5.12t6.144 13.312v438.272q-18.432-20.48-39.936-37.888-152.576-116.736-243.712-192.512-28.672-24.576-47.104-38.912t-49.152-27.648-58.368-13.312h-2.048q-26.624 0-58.368 13.312t-49.152 27.648-47.104 38.912q-90.112 75.776-243.712 192.512-21.504 17.408-39.936 37.888v-438.272zM72.704 722.432q0-96.256 83.968-162.816 110.592-86.016 229.376-180.224 4.096-3.072 20.48-17.408t25.6-21.504 25.6-17.408 28.672-16.384 24.576-5.12h2.048q11.264 0 24.576 5.12t28.672 16.384 25.6 17.408 25.6 21.504 20.48 17.408q118.784 94.208 229.376 180.224 30.72 24.576 57.344 66.56t26.624 74.752v14.336t-1.024 7.168-1.024 7.168-3.072 5.12-5.12 4.096-8.192 2.048h-841.728q-7.168 0-12.288-6.144t-6.144-12.288z" />
<glyph unicode="&#xe811;" glyph-name="behance" d="M413.696 484.864q57.344 0 87.040-40.96t31.744-81.92v-40.96q0-57.344-20.48-98.304t-51.2-59.392-60.416-27.648-50.176-11.264h-350.208v661.504h329.728q79.872 0 130.048-45.056t50.176-131.072q0-51.2-23.552-82.944t-48.128-37.888zM145.408 669.184v-147.456h174.080q26.624 0 40.96 15.36t14.336 62.464q0 30.72-11.264 48.128t-23.552 19.456l-10.24 2.048h-184.32zM321.536 243.2q75.776 0 75.776 86.016 0 40.96-16.384 63.488t-32.768 24.576l-18.432 2.048h-184.32v-176.128h176.128zM800.768 617.984q71.68 0 120.832-29.696t68.608-71.68 27.648-83.968 6.144-70.656l-2.048-30.72h-327.68q0-55.296 27.648-83.968t56.32-28.672l26.624-2.048q47.104 0 72.704 17.408t27.648 33.792l2.048 18.432h110.592q0-83.968-54.272-126.976t-107.52-45.056l-55.296-2.048q-73.728 0-124.928 25.6t-73.728 63.488-33.792 74.752-11.264 61.44v26.624q0 10.24 1.024 27.648t14.336 61.44 36.864 76.8 73.728 60.416 117.76 27.648zM901.12 419.328q0 4.096-1.024 11.264t-6.144 24.576-13.312 30.72-28.672 24.576-47.104 11.264q-43.008 0-71.68-25.6t-34.816-52.224l-6.144-24.576h208.896zM927.744 747.008v-79.872h-262.144v79.872h262.144z" />
<glyph unicode="&#xe812;" glyph-name="blogger" horiz-adv-x="1015" d="M563.2 960l-307.2-1.024c-131.072-18.432-242.688-99.328-251.904-236.544-3.072-13.312-2.048-25.6-2.048-37.888-2.048-60.416-1.024-124.928-1.024-186.368 1.024-98.304-2.048-177.152 0-249.856 1.024-214.016 126.976-313.344 356.352-309.248 56.32 1.024 121.856 1.024 196.608-1.024 73.728 0 131.072-5.12 181.248 2.048 226.304 31.744 270.336 183.296 279.552 306.176v140.288c-6.144 143.36-110.592 182.272-198.656 185.344 9.216 35.84 12.288 83.968 3.072 149.504-10.24 126.976-100.352 226.304-256 238.592zM306.176 768.512h250.88c138.24-18.432 132.096-167.936 0-189.44h-250.88c-138.24 18.432-132.096 167.936 0 189.44zM248.832 354.816l460.8-2.048c139.264-17.408 139.264-187.392 5.12-207.872l-460.8 2.048c-142.336 17.408-140.288 186.368-5.12 207.872z" />
<glyph unicode="&#xe813;" glyph-name="delicious" horiz-adv-x="1033" d="M0-64v513.024h513.024v-513.024h-513.024zM521.216 446.976v513.024h512v-513.024h-512z" />
<glyph unicode="&#xe814;" glyph-name="deviantart" horiz-adv-x="1017" d="M368.64 659.968l5.12-348.16h-210.944c23.552 100.352 70.656 181.248 207.872 201.728l-2.048 45.056c-300.032-38.912-364.544-203.776-368.64-322.56l484.352 1.024v289.792c146.432 4.096 327.68-2.048 377.856-212.992l-215.040 2.048v147.456c-38.912 11.264-71.68 11.264-108.544 9.216l-2.048-235.52h480.256c5.12 235.52-203.776 342.016-532.48 336.896v86.016h-115.712z" />
<glyph unicode="&#xe815;" glyph-name="digg" horiz-adv-x="1149" d="M0 245.248v380.928q0 13.312 13.312 13.312h180.224v132.096q0 14.336 13.312 14.336h100.352v-526.336q0-14.336-12.288-14.336h-294.912zM111.616 330.24h68.608q13.312 0 13.312 14.336v210.944h-68.608q-13.312 0-13.312-14.336v-210.944zM342.016 245.248v380.928q0 13.312 13.312 13.312h100.352v-379.904q0-14.336-12.288-14.336h-101.376zM342.016 700.928v70.656q0 14.336 12.288 14.336h101.376v-70.656q0-14.336-12.288-14.336h-101.376zM494.592 245.248v380.928q0 13.312 13.312 13.312h294.912v-516.096q0-13.312-13.312-13.312h-294.912l1.024 70.656q0 14.336 12.288 14.336h180.224v50.176h-193.536zM607.232 330.24h68.608q12.288 0 12.288 14.336v210.944h-68.608q-12.288 0-12.288-14.336v-210.944zM841.728 180.736q0 14.336 13.312 14.336h180.224v50.176h-193.536v380.928q0 13.312 13.312 13.312h293.888v-516.096q0-13.312-12.288-13.312h-294.912v70.656zM953.344 330.24h68.608q13.312 0 13.312 14.336v210.944h-68.608q-13.312 0-13.312-14.336v-210.944z" />
<glyph unicode="&#xe816;" glyph-name="dribbble" d="M0 448q0 139.264 68.608 257.024t186.368 186.368 257.024 68.608 257.024-68.608 186.368-186.368 68.608-257.024-68.608-257.024-186.368-186.368-257.024-68.608-257.024 68.608-186.368 186.368-68.608 257.024zM84.992 448q0-159.744 107.52-281.6 49.152 96.256 155.648 183.296t207.872 109.568q-15.36 35.84-29.696 64.512-176.128-56.32-380.928-56.32-39.936 0-59.392 1.024 0-4.096 0-10.24t-1.024-10.24zM98.304 553.472q22.528-2.048 66.56-2.048 171.008 0 324.608 46.080-77.824 138.24-171.008 230.4-80.896-40.96-138.24-113.664t-81.92-160.768zM250.88 111.104q115.712-90.112 261.12-90.112 75.776 0 150.528 28.672-20.48 175.104-79.872 338.944-94.208-20.48-189.44-103.424t-142.336-174.080zM407.552 860.672q90.112-93.184 166.912-232.448 139.264 58.368 209.92 148.48-118.784 98.304-272.384 98.304-52.224 0-104.448-14.336zM611.328 555.52q15.36-32.768 34.816-82.944 75.776 7.168 164.864 7.168 63.488 0 125.952-3.072-8.192 139.264-100.352 247.808-66.56-99.328-225.28-168.96zM671.744 400.896q52.224-151.552 70.656-311.296 80.896 52.224 132.096 134.144t61.44 177.152q-74.752 5.12-136.192 5.12-56.32 0-128-5.12z" />
<glyph unicode="&#xe817;" glyph-name="evernote" horiz-adv-x="857" d="M0 643.584q0 40.96 15.36 59.392 9.216 14.336 26.624 21.504 18.432 9.216 48.128 9.216h96.256q15.36 0 26.624 11.264t11.264 26.624q0 21.504-1.024 45.056v60.416q0 25.6 12.288 45.056 15.36 21.504 51.2 31.744 11.264 6.144 54.272 6.144h19.456q60.416-2.048 100.352-17.408 38.912-16.384 46.080-63.488 26.624 1.024 49.152 1.024 54.272 0 91.136-5.12 99.328-12.288 132.096-24.576 43.008-13.312 54.272-68.608 10.24-56.32 18.432-215.040 5.12-91.136 5.12-150.528 0-45.056-3.072-72.704-16.384-176.128-44.032-260.096-14.336-43.008-28.672-70.656t-27.648-43.008-37.888-23.552-43.008-9.216-60.416-1.024q-110.592 0-148.48 25.6t-38.912 109.568q0 46.080 10.24 73.728t33.792 37.888 47.104 13.312q15.36 1.024 40.96 1.024h28.672q4.096 0 6.144-1.024t0-5.12-2.048-8.192-3.072-11.264-2.048-13.312q0-9.216 2.048-18.432t1.024-12.288-7.168-3.072h-20.48t-10.24 0-10.24-2.048-8.192-2.048-8.192-4.096-6.144-6.144-4.096-9.216-1.024-12.288q0-14.336 4.096-23.552t8.192-14.336 18.432-7.168 22.528-2.048h32.768q58.368 0 74.752 13.312t16.384 65.536q0 77.824-18.432 105.472t-58.368 31.744q-90.112 9.216-121.856 20.48-54.272 20.48-54.272 121.856 0 2.048-2.048 2.048t-3.072-2.048q0-68.608-18.432-122.88l-8.192-24.576q-11.264-25.6-37.888-26.624h-6.144q-24.576 0-55.296 8.192-130.048 16.384-202.752 48.128-24.576 11.264-37.888 40.96-17.408 35.84-35.84 132.096t-24.576 136.192q-4.096 33.792-4.096 52.224zM6.144 765.44v2.048l187.392 184.32q0 1.024 1.024 1.024l-3.072-6.144q-11.264-20.48-11.264-49.152 0-22.528 1.024-105.472 0-10.24-10.24-10.24h-95.232q-34.816 0-60.416-11.264-5.12-3.072-9.216-5.12zM587.776 468.48q21.504 3.072 47.104 3.072 46.080-1.024 82.944-18.432 0 87.040-62.464 89.088h-3.072q-30.72 0-45.056-20.48-15.36-21.504-19.456-53.248z" />
<glyph unicode="&#xe818;" glyph-name="facebook" horiz-adv-x="512" d="M512 749.056h-145.408q-14.336 0-25.6-15.36t-11.264-37.888v-104.448h182.272v-151.552h-182.272v-452.608h-174.080v452.608h-155.648v151.552h155.648v88.064q0 96.256 60.416 162.816t150.528 66.56h145.408v-159.744z" />
<glyph unicode="&#xe819;" glyph-name="flickr" horiz-adv-x="922" d="M200.704 243.2q-81.92 0-141.312 60.416t-59.392 144.384q0 86.016 58.368 145.408t142.336 59.392 142.336-59.392 58.368-145.408q0-83.968-59.392-144.384t-141.312-60.416zM720.896 243.2q-81.92 0-141.312 60.416t-59.392 144.384q0 86.016 58.368 145.408t142.336 59.392 142.336-59.392 58.368-145.408q0-83.968-59.392-144.384t-141.312-60.416z" />
<glyph unicode="&#xe81a;" glyph-name="forrst" horiz-adv-x="854" d="M0-64l427.008 1024 427.008-1024h-377.856v138.24l174.080 87.040-13.312 56.32-160.768-80.896v68.608l100.352 53.248-14.336 58.368-86.016-46.080v89.088h-94.208v-160.768l-88.064 60.416-16.384-65.536 104.448-71.68v-186.368h-381.952z" />
<glyph unicode="&#xe81b;" glyph-name="googleplus" horiz-adv-x="1366" d="M1184.182 418.477h148.178v103.333h-148.178v145.266h-105.413v-145.266h-148.178v-103.333h148.178v-145.266h105.413v145.266zM424.324 32.016c258.916 0 406.095 186.283 406.095 415.996 0 28.37-2.912 55.993-8.402 82.699h-397.692v-166.564h226.884c-27.872-104.165-118.144-162.571-226.884-162.571-138.859 0-249.014 110.322-249.014 246.436s110.155 246.436 249.014 246.436c63.648 0 116.228-19.385 160.491-57.575l122.468 120.057c-75.712 68.807-171.556 107.076-282.961 107.076-234.372 0-424.316-186.283-424.316-415.996s189.944-415.996 424.316-415.996z" />
<glyph unicode="&#xe81c;" glyph-name="html5" horiz-adv-x="804" d="M0 887.296h804.864l-73.728-822.272-329.728-92.16-328.704 92.16zM149.504 719.36l26.624-305.152h350.208l-12.288-131.072-112.64-29.696-112.64 29.696-7.168 79.872h-100.352l13.312-158.72 206.848-56.32h2.048l204.8 56.32 28.672 311.296h-367.616l-9.216 103.424h386.048l9.216 100.352h-505.856z" />
<glyph unicode="&#xe81d;" glyph-name="instagram" horiz-adv-x="878" d="M585.143 448c0 80.571-65.714 146.286-146.286 146.286s-146.286-65.714-146.286-146.286 65.714-146.286 146.286-146.286 146.286 65.714 146.286 146.286zM664 448c0-124.571-100.571-225.143-225.143-225.143s-225.143 100.571-225.143 225.143 100.571 225.143 225.143 225.143 225.143-100.571 225.143-225.143zM725.714 682.286c0-29.143-23.429-52.571-52.571-52.571s-52.571 23.429-52.571 52.571 23.429 52.571 52.571 52.571 52.571-23.429 52.571-52.571zM438.857 808c-64 0-201.143 5.143-258.857-17.714-20-8-34.857-17.714-50.286-33.143s-25.143-30.286-33.143-50.286c-22.857-57.714-17.714-194.857-17.714-258.857s-5.143-201.143 17.714-258.857c8-20 17.714-34.857 33.143-50.286s30.286-25.143 50.286-33.143c57.714-22.857 194.857-17.714 258.857-17.714s201.143-5.143 258.857 17.714c20 8 34.857 17.714 50.286 33.143s25.143 30.286 33.143 50.286c22.857 57.714 17.714 194.857 17.714 258.857s5.143 201.143-17.714 258.857c-8 20-17.714 34.857-33.143 50.286s-30.286 25.143-50.286 33.143c-57.714 22.857-194.857 17.714-258.857 17.714zM877.714 448c0-60.571 0.571-120.571-2.857-181.143-3.429-70.286-19.429-132.571-70.857-184s-113.714-67.429-184-70.857c-60.571-3.429-120.571-2.857-181.143-2.857s-120.571-0.571-181.143 2.857c-70.286 3.429-132.571 19.429-184 70.857s-67.429 113.714-70.857 184c-3.429 60.571-2.857 120.571-2.857 181.143s-0.571 120.571 2.857 181.143c3.429 70.286 19.429 132.571 70.857 184s113.714 67.429 184 70.857c60.571 3.429 120.571 2.857 181.143 2.857s120.571 0.571 181.143-2.857c70.286-3.429 132.571-19.429 184-70.857s67.429-113.714 70.857-184c3.429-60.571 2.857-120.571 2.857-181.143z" />
<glyph unicode="&#xe81e;" glyph-name="lastfm" horiz-adv-x="1361" d="M0 448q0 167.936 118.784 286.72t286.72 118.784q126.976 0 225.28-64.512t149.504-185.344q15.36-36.864 132.096-307.2 21.504-49.152 38.912-74.752t50.176-46.080 80.896-22.528h7.168q68.608 0 113.664 36.864 47.104 38.912 48.128 98.304 0 27.648-8.192 46.080t-29.696 32.768-41.984 22.528-60.416 20.48q-128 41.984-184.32 92.16t-56.32 138.24q0 93.184 59.392 149.504t159.744 55.296q130.048 0 195.584-117.76l-86.016-44.032q-46.080 63.488-114.688 63.488-47.104 0-77.824-28.672t-31.744-74.752q0-13.312 2.048-24.576t9.216-21.504 12.288-16.384 17.408-14.336 20.48-12.288 25.6-10.24 27.648-10.24 31.744-10.24 33.792-10.24q110.592-36.864 158.72-86.016t47.104-143.36q0-102.4-77.824-169.984-76.8-66.56-190.464-66.56h-3.072q-102.4 0-164.864 48.128t-105.472 143.36l-14.336 33.792-130.048 294.912q-33.792 78.848-106.496 126.976t-162.816 48.128q-121.856 0-207.872-86.016t-87.040-208.896 87.040-207.872 207.872-87.040q83.968 0 153.6 44.032t107.52 114.688l52.224-120.832q-56.32-69.632-138.24-109.568t-175.104-38.912q-167.936 0-286.72 118.784t-118.784 286.72z" />
<glyph unicode="&#xe81f;" glyph-name="linkedin" horiz-adv-x="1061" d="M0 837.12q0 51.2 35.84 84.992t93.184 32.768q56.32 0 91.136-32.768 35.84-33.792 35.84-88.064 0-49.152-34.816-81.92-35.84-33.792-94.208-33.792h-1.024q-56.32 0-91.136 33.792t-34.816 84.992zM13.312-58.88v684.032h227.328v-684.032h-227.328zM366.592-58.88h227.328v381.952q0 35.84 8.192 55.296 14.336 34.816 44.032 59.392t72.704 23.552q114.688 0 114.688-154.624v-365.568h227.328v392.192q0 151.552-71.68 230.4t-189.44 77.824q-132.096 0-205.824-113.664v-2.048h-1.024l1.024 2.048v97.28h-227.328q2.048-32.768 2.048-203.776t-2.048-480.256z" />
<glyph unicode="&#xe820;" glyph-name="mail-2" horiz-adv-x="907" d="M593.92 402.944l264.192-273.408h-807.936l265.216 270.336 138.24-130.048zM64.512 766.464h778.24l-389.12-370.688zM644.096 450.048l263.168 247.808v-520.192zM0 177.664v520.192l265.216-248.832z" />
<glyph unicode="&#xe821;" glyph-name="myspace" horiz-adv-x="1112" d="M0 268.8v358.4h143.36v-211.968h824.32v211.968h144.384v-358.4h-1112.064z" />
<glyph unicode="&#xe822;" glyph-name="path" horiz-adv-x="952" d="M0 565.76q4.096 176.128 134.144 284.672 138.24 107.52 342.016 109.568 214.016-4.096 344.064-107.52 63.488-54.272 97.28-130.048t34.816-156.672q-4.096-167.936-128-269.312-130.048-102.4-337.92-104.448v-61.44q-2.048-58.368-34.816-106.496t-81.92-71.68q-33.792-16.384-73.728-16.384-48.128 0-96.256 24.576v177.152q41.984-29.696 78.848-19.456 33.792 14.336 33.792 50.176v491.52h174.080v-306.176q59.392 0 113.664 12.288 81.92 20.48 128 60.416 60.416 57.344 60.416 139.264 0 118.784-98.304 180.224-90.112 52.224-214.016 52.224-130.048-4.096-216.064-56.32-46.080-29.696-70.656-76.8t-25.6-99.328q8.192-107.52 48.128-145.408l-109.568-117.76q-48.128 47.104-76.8 123.904-23.552 79.872-25.6 139.264z" />
<glyph unicode="&#xe823;" glyph-name="paypal" horiz-adv-x="880" d="M789.504 714.24l8.192-4.096q38.912-22.528 61.44-63.488 20.48-38.912 20.48-98.304 0-133.12-112.64-215.040-108.544-81.92-313.344-81.92h-30.72q-16.384 0-32.768-12.288t-20.48-28.672l-36.864-159.744q-12.288-43.008-53.248-43.008h-108.544q-18.432 0-28.672 13.312t-6.144 29.696l6.144 24.576h69.632q16.384 0 32.768 13.312t20.48 29.696l36.864 159.744q10.24 40.96 53.248 40.96h30.72q200.704 0 313.344 81.92 112.64 83.968 112.64 215.040 0 57.344-22.528 98.304zM195.584 185.856q-2.048-16.384-18.432-29.696t-32.768-13.312h-110.592q-18.432 0-27.648 13.312t-5.12 29.696l153.6 661.504q10.24 40.96 53.248 40.96h229.376q79.872 0 129.024-8.192 57.344-12.288 96.256-34.816 36.864-24.576 59.392-63.488 20.48-38.912 20.48-98.304 0-133.12-112.64-215.040-108.544-81.92-311.296-81.92h-32.768q-16.384 0-32.768-12.288t-18.432-28.672zM285.696 568.832q-4.096-16.384 6.144-28.672t26.624-12.288h28.672q88.064 0 137.216 36.864 49.152 34.816 49.152 100.352 0 45.056-30.72 65.536-32.768 20.48-96.256 20.48h-34.816q-43.008 0-53.248-40.96z" />
<glyph unicode="&#xe824;" glyph-name="picasa" horiz-adv-x="942" d="M256 867.84q10.24-12.288 161.792-147.456l-405.504-370.688q-12.288 49.152-12.288 98.304 0 133.12 68.608 245.76t187.392 174.080zM665.6 878.080v-284.672l-335.872 303.104q65.536 22.528 141.312 22.528 100.352 0 194.56-40.96zM737.28 837.12q96.256-65.536 150.528-168.96t54.272-220.16q0-81.92-26.624-155.648h-178.176v544.768zM34.816 273.92q12.288 12.288 67.584 61.44l104.448 94.208v-370.688q-118.784 81.92-172.032 215.040zM278.528 17.92v202.752h604.16q-57.344-102.4-154.624-166.912t-214.016-76.8h-86.016q-86.016 10.24-149.504 40.96z" />
<glyph unicode="&#xe825;" glyph-name="pinterest" horiz-adv-x="797" d="M327.68 284.16q-26.624-133.12-59.392-216.064t-98.304-132.096q-6.144 75.776-7.168 122.88t11.264 112.64 22.528 106.496 26.624 101.376 24.576 101.376q-24.576 53.248-19.456 118.784t49.152 108.544 101.376 20.48q40.96-16.384 45.056-60.416t-13.312-97.28-32.768-105.472-4.096-92.16 64.512-50.176q69.632-14.336 123.904 38.912t75.776 134.144 11.264 166.912-55.296 131.072q-63.488 65.536-154.624 71.68t-166.912-33.792-122.88-119.808-32.768-174.080q4.096-22.528 22.528-53.248t21.504-48.128-17.408-68.608q-149.504 34.816-143.36 235.52 4.096 141.312 107.52 239.616t238.592 114.688q167.936 18.432 296.96-58.368t147.456-224.256q26.624-180.224-67.584-324.608t-258.048-132.096q-22.528 2.048-43.008 9.216t-30.72 13.312-31.744 21.504-31.744 21.504z" />
<glyph unicode="&#xe826;" glyph-name="posterous" horiz-adv-x="680" d="M0 944.64h102.4l8.192-123.904h10.24l5.12 3.072q80.896 136.192 251.904 136.192 133.12 0 218.112-100.352t83.968-260.096q0-95.232-27.648-169.984t-73.728-120.832-103.424-68.608-119.808-23.552q-70.656 0-128 29.696t-89.088 80.896l-2.048 3.072h-11.264l-3.072-7.168v-387.072h-115.712v779.264q0 90.112-6.144 229.376zM121.856 521.728q0-31.744 6.144-56.32 19.456-71.68 75.776-115.712t129.024-44.032q103.424 0 165.888 78.848t62.464 208.896q0 121.856-62.464 198.656t-160.768 76.8q-73.728 0-131.072-46.080t-75.776-120.832q-9.216-33.792-9.216-54.272v-125.952z" />
<glyph unicode="&#xe827;" glyph-name="reddit" horiz-adv-x="1234" d="M0 451.072q0 63.488 51.2 108.544t114.688 45.056 107.52-36.864h5.12q137.216 83.968 343.040 83.968l5.12 4.096 71.68 273.408 247.808-36.864q0-1.024 2.048-1.024 1.024 0 0 1.024 2.048 1.024 12.288 16.384t14.336 18.432q34.816 32.768 83.968 32.768 50.176 0 84.992-32.768t33.792-83.968-33.792-86.016-84.992-35.84q-58.368 0-89.088 39.936t-30.72 98.304q-2.048-1.024-99.328 13.312t-112.64 17.408h-3.072q-2.048-2.048-16.384-54.272t-30.72-111.616-18.432-65.536v-3.072l5.12-4.096q73.728 0 151.552-20.48t133.12-59.392l3.072-2.048q1.024 1.024 2.048 1.024t2.048 1.024q25.6 18.432 36.864 25.6t29.696 13.312 44.032 6.144q69.632 0 118.784-49.152t49.152-119.808q0-48.128-26.624-88.064t-71.68-61.44q0-199.68-266.24-310.272-41.984-18.432-57.344-23.552-32.768-10.24-93.184-19.456t-95.232-9.216q-122.88 0-236.544 35.84-2.048 2.048-73.728 38.912-97.28 52.224-155.648 118.784t-59.392 159.744h-5.12q-33.792 17.408-60.416 51.2l-9.216 12.288q-15.36 27.648-19.456 47.104t-4.096 51.2zM34.816 438.784q0-67.584 58.368-114.688 5.12 60.416 49.152 118.784t103.424 103.424q-37.888 26.624-83.968 26.624-50.176 0-88.064-40.96t-38.912-93.184zM139.264 289.28q0-55.296 31.744-106.496t81.92-87.040 104.448-61.44 107.52-34.816q76.8-14.336 149.504-14.336 125.952 0 238.592 39.936t189.44 125.952h-3.072q30.72 38.912 44.032 70.656t13.312 73.728q0 55.296-26.624 105.472t-71.68 86.016-94.208 62.464-102.4 38.912q-87.040 23.552-185.344 23.552-75.776 0-154.624-18.432t-153.6-55.296-121.856-101.376-47.104-147.456zM329.728 364.032q0 37.888 23.552 61.44t60.416 22.528 63.488-22.528 25.6-61.44q0-36.864-25.6-61.44t-63.488-24.576-60.416 24.576-23.552 61.44zM366.592 196.096h45.056q25.6-46.080 81.92-69.632t113.664-24.576q59.392 0 112.64 24.576t86.016 69.632h41.984q-25.6-63.488-95.232-98.304t-145.408-34.816q-73.728 0-144.384 35.84t-96.256 97.28zM710.656 364.032q0 38.912 23.552 61.44t62.464 22.528q34.816 0 59.392-24.576t24.576-59.392-24.576-60.416-59.392-25.6q-37.888 0-61.44 24.576t-24.576 61.44zM971.776 843.264q0-35.84 25.6-61.44t61.44-25.6q36.864 0 60.416 25.6t23.552 61.44q0 34.816-24.576 59.392t-59.392 24.576-60.416-24.576-26.624-59.392zM986.112 555.52q56.32-36.864 97.28-94.208t57.344-122.88q60.416 44.032 60.416 98.304 0 59.392-35.84 102.4t-95.232 43.008q-46.080 0-83.968-26.624z" />
<glyph unicode="&#xe828;" glyph-name="rss" horiz-adv-x="804" d="M0 192q0 46.080 31.744 77.824t77.824 31.744 77.824-31.744 31.744-77.824-31.744-77.824-77.824-31.744-77.824 31.744-31.744 77.824zM0 480.768v76.8q0 16.384 12.288 26.624 9.216 10.24 24.576 10.24h3.072q91.136-7.168 174.080-46.080t148.48-103.424q64.512-64.512 103.424-148.48t46.080-175.104q1.024-15.36-9.216-26.624-11.264-12.288-27.648-12.288h-76.8q-14.336 0-24.576 9.216t-11.264 23.552q-12.288 131.072-105.472 224.256t-224.256 105.472q-14.336 1.024-23.552 11.264t-9.216 24.576zM0 768.512v81.92q0 15.36 11.264 26.624 10.24 10.24 25.6 10.24h1.024q150.528-8.192 286.72-68.608t243.712-167.936q106.496-106.496 167.936-243.712t68.608-286.72q1.024-15.36-10.24-26.624-10.24-11.264-26.624-11.264h-81.92q-14.336 0-25.6 10.24t-11.264 23.552q-6.144 122.88-57.344 233.472t-132.096 192.512-192.512 132.096-232.448 58.368q-14.336 0-24.576 11.264t-10.24 24.576z" />
<glyph unicode="&#xe829;" glyph-name="share" horiz-adv-x="819" d="M665.6 294.4q63.488 0 108.544-44.032t45.056-109.568q0-63.488-45.056-108.544t-108.544-45.056-108.544 45.056-45.056 108.544q0 6.144 1.024 14.336t1.024 12.288l-266.24 159.744q-43.008-32.768-94.208-32.768-63.488 0-108.544 45.056t-45.056 108.544 45.056 108.544 108.544 45.056q55.296 0 94.208-30.72l266.24 159.744q0 4.096-1.024 12.288t-1.024 12.288q0 63.488 45.056 108.544t108.544 45.056 108.544-44.032 45.056-109.568q0-63.488-45.056-108.544t-108.544-45.056q-53.248 0-92.16 32.768l-268.288-159.744q2.048-8.192 2.048-26.624 0-16.384-2.048-24.576l268.288-159.744q36.864 30.72 92.16 30.72z" />
<glyph unicode="&#xe82a;" glyph-name="skype" horiz-adv-x="1010" d="M0 680.448q0 115.712 81.92 197.632t197.632 81.92q79.872 0 148.48-43.008 36.864 7.168 81.92 7.168 199.68 0 340.992-141.312t141.312-339.968q0-50.176-11.264-103.424 28.672-60.416 28.672-123.904 0-115.712-81.92-197.632t-197.632-81.92q-69.632 0-132.096 32.768-46.080-8.192-88.064-8.192-198.656 0-339.968 141.312t-141.312 340.992q0 48.128 9.216 96.256-37.888 66.56-37.888 141.312zM226.304 305.664q0-41.984 30.72-87.040 72.704-106.496 251.904-106.496 51.2 0 99.328 11.264t89.088 34.816 67.584 65.536 25.6 96.256q0 59.392-29.696 100.352t-75.776 59.392-97.28 33.792-98.304 23.552-74.752 26.624-30.72 45.056q0 33.792 37.888 50.176t75.776 16.384q40.96 0 67.584-12.288t38.912-30.72 21.504-35.84 25.6-30.72 39.936-13.312q27.648 0 49.152 19.456t20.48 47.104-15.36 55.296q-30.72 56.32-97.28 81.92t-141.312 25.6q-47.104 0-91.136-9.216t-84.992-29.696-65.536-57.344-25.6-89.088q0-67.584 40.96-108.544t99.328-58.368 117.76-29.696 99.328-33.792 40.96-60.416q0-29.696-23.552-50.176t-51.2-27.648-58.368-7.168q-38.912 0-65.536 11.264t-39.936 27.648-22.528 35.84-18.432 35.84-23.552 27.648-37.888 10.24q-28.672 0-49.152-17.408t-21.504-46.080z" />
<glyph unicode="&#xe82b;" glyph-name="soundcloud" horiz-adv-x="1073" d="M0 257.536q0-20.48 14.336-30.72t30.72-7.168 22.528 11.264 6.144 26.624v144.384q0 15.36-11.264 26.624t-25.6 10.24q-15.36 0-25.6-10.24t-11.264-26.624v-144.384zM114.688 195.072q0-14.336 10.24-21.504t26.624-7.168 26.624 7.168 10.24 21.504v337.92q0 15.36-10.24 25.6t-26.624 11.264q-15.36 0-25.6-11.264t-11.264-25.6v-337.92zM229.376 179.712q0-14.336 10.24-22.528t27.648-7.168q15.36 0 25.6 7.168t10.24 22.528v308.224q0 15.36-10.24 26.624t-25.6 10.24q-15.36 0-26.624-10.24t-11.264-26.624v-308.224zM344.064 177.664q0-27.648 36.864-27.648t37.888 27.648v499.712q0 41.984-25.6 48.128-16.384 4.096-32.768-10.24t-16.384-37.888v-499.712zM460.8 163.328v543.744q0 25.6 16.384 30.72 32.768 8.192 66.56 8.192 75.776 0 142.336-35.84t106.496-98.304 47.104-137.216q30.72 13.312 64.512 13.312 70.656 0 119.808-50.176t50.176-118.784q0-69.632-50.176-118.784t-118.784-50.176l-435.2 1.024q-4.096 1.024-6.144 5.12t-3.072 7.168z" />
<glyph unicode="&#xe82c;" glyph-name="spotify" d="M0 448q0 139.264 68.608 257.024t186.368 186.368 257.024 68.608 257.024-68.608 186.368-186.368 68.608-257.024q0-103.424-38.912-196.608t-109.568-163.84q-61.44 74.752-148.48 116.736t-187.392 41.984q-109.568 0-203.776-50.176t-154.624-138.24q-84.992 72.704-133.12 174.080t-48.128 216.064zM167.936 595.456q0-17.408 12.288-29.696t30.72-13.312q6.144 0 9.216 1.024 147.456 59.392 305.152 59.392t305.152-59.392q1.024 0 4.096 0t5.12-1.024q17.408 0 30.72 13.312t12.288 29.696q0 25.6-23.552 37.888-162.816 64.512-333.824 64.512-174.080 0-336.896-65.536-20.48-13.312-20.48-36.864zM215.040 442.88l6.144-16.384q8.192-13.312 23.552-13.312 3.072 0 9.216 2.048 130.048 56.32 271.36 56.32 142.336 0 273.408-57.344 4.096-2.048 7.168-2.048 15.36 0 23.552 13.312l5.12 17.408q0 13.312-10.24 21.504-141.312 63.488-299.008 63.488-156.672 0-300.032-63.488-10.24-10.24-10.24-21.504zM264.192 295.424q10.24-25.6 31.744-16.384 110.592 52.224 229.376 52.224 114.688 0 224.256-49.152 24.576-13.312 35.84 12.288 5.12 13.312 0 23.552t-14.336 15.36q-108.544 54.272-245.76 54.272-131.072 0-249.856-56.32-19.456-10.24-11.264-35.84zM326.656-29.184q37.888 49.152 94.208 77.824t118.784 28.672q116.736 0 197.632-88.064-106.496-53.248-225.28-53.248-96.256 0-185.344 34.816z" />
<glyph unicode="&#xe82d;" glyph-name="stackoverflow" horiz-adv-x="803" d="M0-64v427.008l77.824-1.024-3.072-343.040h513.024v342.016h80.896v-424.96h-668.672zM125.952 160.256h401.408v-84.992h-401.408v84.992zM126.976 226.816l8.192 87.040 402.432-38.912-8.192-87.040zM148.48 403.968l23.552 83.968 389.12-109.568-24.576-83.968zM221.184 609.792l45.056 74.752 346.112-208.896-46.080-74.752zM392.192 819.712l70.656 51.2 235.52-328.704-71.68-51.2zM650.24 945.664l86.016 14.336 66.56-398.336-86.016-14.336z" />
<glyph unicode="&#xe82e;" glyph-name="steam" horiz-adv-x="1343" d="M0 570.88q0 56.32 39.936 96.256t95.232 39.936q48.128 0 86.016-29.696t47.104-76.8l514.048-206.848q32.768 19.456 69.632 19.456 2.048 0 7.168 0t7.168-1.024l112.64 162.816q1.024 74.752 54.272 128t128 52.224q75.776 0 129.024-53.248t53.248-129.024-53.248-129.024-129.024-53.248l-174.080-126.976q-5.12-52.224-44.032-87.040t-91.136-35.84q-49.152 0-86.016 30.72t-47.104 76.8l-514.048 205.824q-32.768-19.456-69.632-19.456-56.32 0-95.232 39.936t-39.936 96.256zM35.84 570.88q0-40.96 29.696-69.632t69.632-29.696q9.216 0 21.504 2.048l-41.984 16.384v1.024q-28.672 13.312-40.96 43.008-6.144 14.336-6.144 28.672 0 15.36 6.144 30.72 12.288 30.72 40.96 43.008 15.36 7.168 31.744 6.144 13.312 0 27.648-5.12v1.024l50.176-20.48q-29.696 53.248-89.088 53.248-40.96 0-69.632-28.672t-29.696-71.68zM762.88 229.888q29.696-53.248 89.088-53.248 40.96 0 70.656 29.696t29.696 70.656-28.672 70.656-71.68 28.672q-14.336 0-21.504-2.048l40.96-16.384q30.72-12.288 44.032-43.008 7.168-15.36 7.168-30.72 0-14.336-6.144-29.696-12.288-31.744-43.008-44.032-15.36-6.144-30.72-6.144-14.336 0-29.696 6.144-8.192 3.072-24.576 10.24t-25.6 9.216zM1039.36 572.928q0-50.176 35.84-86.016t86.016-35.84q51.2 0 87.040 35.84t35.84 86.016-35.84 86.016-87.040 35.84q-50.176 0-86.016-35.84t-35.84-86.016zM1064.96 573.952q0-40.96 28.672-69.632t68.608-28.672 68.608 28.672 28.672 69.632q0 39.936-28.672 68.608t-68.608 28.672q-40.96 0-68.608-28.672t-28.672-68.608z" />
<glyph unicode="&#xe82f;" glyph-name="stumbleupon" horiz-adv-x="1340" d="M0 236.032v185.344h229.376v-183.296q0-28.672 20.48-49.152t50.176-21.504 51.2 20.48 20.48 50.176v433.152q0 119.808 89.088 204.8t209.92 83.968 210.944-84.992 88.064-205.824v-94.208l-137.216-40.96-91.136 43.008v81.92q0 29.696-20.48 50.176t-50.176 20.48-50.176-20.48-21.504-50.176v-427.008q0-122.88-88.064-209.92t-210.944-86.016q-123.904 0-211.968 87.040t-88.064 212.992zM741.376 232.96v187.392l91.136-43.008 137.216 40.96v-188.416q0-29.696 20.48-50.176t50.176-21.504 50.176 21.504 20.48 50.176v191.488h229.376v-185.344q0-123.904-87.040-211.968t-211.968-88.064-211.968 87.040-88.064 209.92z" />
<glyph unicode="&#xe830;" glyph-name="tumblr" horiz-adv-x="631" d="M0 540.16v145.408q61.44 20.48 103.424 56.32 41.984 33.792 68.608 88.064 26.624 52.224 35.84 130.048h146.432v-259.072h242.688v-160.768h-242.688v-262.144q0-88.064 9.216-114.688 9.216-24.576 34.816-39.936 34.816-20.48 77.824-20.48 78.848 0 154.624 50.176v-160.768q-64.512-31.744-118.784-44.032-53.248-12.288-114.688-12.288-69.632 0-124.928 17.408-56.32 19.456-91.136 51.2-36.864 31.744-53.248 69.632-14.336 34.816-14.336 107.52v358.4h-113.664z" />
<glyph unicode="&#xe831;" glyph-name="twitter" horiz-adv-x="1260" d="M118.119 126.012q24.96-2.496 49.92-2.496 146.434 0 261.251 89.856-68.224 0.832-122.305 41.6t-74.048 104.001q16.64-3.328 39.104-3.328 29.12 0 55.744 7.488-73.216 14.144-120.641 72.384t-48.256 133.122v2.496q44.096-24.96 95.681-25.792-43.264 28.288-68.224 74.88t-25.792 99.841q0 56.576 29.12 105.665 78.208-97.345 191.363-154.754t241.283-64.896q-5.824 27.456-5.824 48.256 0 86.528 61.568 148.098t148.93 61.568q90.689 0 153.090-66.56 72.384 14.976 133.122 51.584-23.296-75.712-91.521-116.481 60.736 7.488 119.809 33.28-39.936-62.4-104.001-108.993v-27.456q0-84.032-24.128-168.066t-74.88-161.41-120.641-137.282-167.234-95.681-210.499-34.944q-173.89 0-321.988 94.017z" />
<glyph unicode="&#xe832;" glyph-name="vimeo" horiz-adv-x="1174" d="M110.061 637.696q45.76 54.080 91.52 96.512t79.872 64.896 59.904 35.776 39.936 17.472l14.144 3.328q9.984 1.664 19.968 1.664 15.808 0 29.12-4.992 21.632-8.32 35.776-28.288t24.128-45.76 17.472-59.904 12.48-64.896 11.648-65.728 11.648-59.072q26.624-104 43.264-147.264t34.112-44.096q19.968 0 55.744 46.592t77.376 125.632q21.632 39.936 21.632 75.712 0 10.816-1.664 19.136-7.488 43.264-42.432 54.080-9.152 3.328-19.968 3.328-29.12 0-69.056-21.632 18.304 108.16 111.488 173.888 70.72 49.92 144.768 49.92 9.984 0 19.968-0.832 84.864-6.656 115.648-74.88 14.976-31.616 14.976-73.216 0-24.128-4.992-50.752-14.976-84.864-57.408-173.056t-94.016-155.584-110.656-128.96-102.336-98.176-75.712-56.576q-34.944-19.968-64.896-19.968t-58.24 17.472-46.592 39.936-31.616 47.424q-14.976 31.616-80.704 248.768t-80.704 232.96q-0.832 1.664-3.328 3.328t-10.816 4.16-19.968 0-30.784-11.648-41.6-27.456z" />
<glyph unicode="&#xe833;" glyph-name="windows" horiz-adv-x="950" d="M0 67.072v318.464h390.144v-372.736zM0 433.664v322.56l390.144 53.248v-375.808h-390.144zM432.128 7.68v377.856h519.168v-449.536zM432.128 433.664v381.952l519.168 71.68v-453.632h-519.168z" />
<glyph unicode="&#xe834;" glyph-name="wordpress" horiz-adv-x="1019" d="M514.048 960c-200.704 0-389.12-118.784-476.16-307.2h243.712v-26.624c-74.752 9.216-68.608-30.72-57.344-71.68l159.744-400.384 117.76 275.456-54.272 129.024c-19.456 34.816-20.48 72.704-100.352 69.632l1.024 24.576 357.376-1.024v-27.648c-41.984-3.072-92.16 10.24-65.536-75.776l144.384-378.88 78.848 221.184c26.624 93.184 2.048 182.272-28.672 270.336-17.408 58.368-9.216 107.52 67.584 126.976-116.736 119.808-254.976 172.032-388.096 172.032zM1000.448 609.792l-232.448-604.16c64.512 55.296 130.048 75.776 209.92 229.376 53.248 126.976 48.128 244.736 22.528 374.784zM13.312 599.552c-22.528-178.176-20.48-230.4 35.84-375.808 72.704-139.264 129.024-168.96 209.92-223.232l-245.76 599.040zM523.264 373.248l-172.032-413.696c120.832-34.816 228.352-30.72 327.68 8.192l-155.648 405.504z" />
<glyph unicode="&#xe835;" glyph-name="yahoo" horiz-adv-x="1408" d="M0 745.984l6.144-19.456q4.096-6.144 8.192-10.24t5.12-5.12l2.048-2.048 19.456-10.24h113.664l293.888-352.256q11.264-12.288 11.264-25.6v-196.608q0-8.192-2.048-12.288t-6.144-5.12h-3.072q-114.688 0-145.408-3.072-10.24 0-10.24-9.216v-56.32h528.384v58.368q0 3.072-2.048 5.12t-5.12 2.048h-149.504q-9.216 0-9.216 15.36v206.848q-1.024 3.072 2.048 7.168t5.12 7.168l3.072 3.072q11.264 11.264 270.336 254.976h136.192q9.216 0 18.432 7.168l17.408 19.456q6.144 7.168 6.144 18.432v14.336q-1.024 3.072-3.072 5.12t-3.072 1.024h-448.512l-7.168-6.144q-1.024-6.144 2.048-12.288t5.12-10.24l2.048-4.096 23.552-23.552 18.432-7.168h117.76l-211.968-199.68-233.472 297.984h41.984q13.312-1.024 22.528 4.096l69.632 21.504q1.024 0 3.072 1.024t5.12 5.12 2.048 9.216v14.336q0 3.072-2.048 5.12t-4.096 2.048h-503.808q-8.192-1.024-10.24-7.168v-8.192zM1218.56 857.6l189.44-7.168-84.992-580.608-62.464 3.072zM1231.872 76.288l4.096 112.64 112.64-4.096-4.096-112.64z" />
<glyph unicode="&#xe836;" glyph-name="youtube" d="M0 448q0 55.296 1.024 86.016t4.096 77.824 13.312 83.968q9.216 41.984 38.912 70.656t71.68 32.768q125.952 14.336 382.976 14.336t382.976-14.336q40.96-4.096 71.68-32.768t39.936-70.656q7.168-36.864 12.288-83.968t4.096-77.824 1.024-86.016-1.024-86.016-4.096-77.824-13.312-83.968q-9.216-41.984-38.912-70.656t-71.68-32.768q-125.952-14.336-382.976-14.336t-382.976 14.336q-40.96 4.096-71.68 32.768t-39.936 70.656q-7.168 36.864-12.288 83.968t-4.096 77.824-1.024 86.016zM365.568 264.704q0-21.504 19.456-31.744 9.216-4.096 17.408-4.096 11.264 0 19.456 5.12l292.864 183.296q16.384 9.216 16.384 30.72t-16.384 30.72l-292.864 183.296q-17.408 11.264-36.864 1.024t-19.456-31.744v-366.592z" />
<glyph unicode="&#xe837;" glyph-name="vk" horiz-adv-x="1249" d="M0 759.296q10.24 8.192 25.6 12.288 14.336 4.096 25.6 4.096h9.216q10.24 0 24.576-1.024 22.528-1.024 32.768-1.024 6.144 0 38.912 2.048 16.384 1.024 29.696 1.024t23.552-1.024q20.48-2.048 32.768-8.192 6.144-3.072 13.312-13.312t12.288-19.456 11.264-25.6 10.24-22.528q38.912-83.968 96.256-166.912 2.048-3.072 7.168-11.264t9.216-12.288 9.216-12.288 10.24-11.264 11.264-8.192 11.264-6.144 12.288 0q28.672 5.12 31.744 119.808 1.024 19.456 1.024 35.84 0 75.776-15.36 104.448-6.144 11.264-15.36 18.432t-25.6 12.288-23.552 10.24q14.336 28.672 51.2 37.888t98.304 9.216h54.272t26.624 0 27.648-3.072l22.528-6.144t20.48-9.216 12.288-14.336q9.216-18.432 11.264-43.008 0-7.168 1.024-14.336 0-20.48-3.072-53.248-4.096-43.008-4.096-53.248-3.072-23.552-3.072-47.104 0-18.432 2.048-38.912 4.096-45.056 30.72-62.464 9.216 1.024 17.408 4.096t15.36 11.264 11.264 12.288 13.312 16.384 10.24 14.336q48.128 63.488 96.256 166.912l9.216 23.552t12.288 26.624 12.288 20.48 15.36 13.312q16.384 7.168 38.912 7.168h9.216q20.48 0 47.104-2.048 32.768-2.048 48.128-2.048 9.216 0 28.672 1.024t32.768 2.048 30.72-1.024 25.6-6.144 14.336-13.312q3.072-6.144 3.072-13.312 0-29.696-35.84-89.088-17.408-29.696-34.816-53.248t-47.104-59.392-37.888-48.128q-2.048-2.048-14.336-18.432t-17.408-24.576-12.288-22.528-5.12-27.648q0-8.192 3.072-15.36t10.24-15.36 10.24-12.288 13.312-13.312 12.288-11.264q72.704-66.56 114.688-119.808 40.96-53.248 40.96-76.8 0-33.792-52.224-41.984-26.624-4.096-54.272-4.096-21.504 0-44.032 3.072-20.48 2.048-37.888 2.048-26.624 0-46.080-5.12h-6.144q-67.584 11.264-142.336 96.256-4.096 4.096-17.408 21.504t-22.528 25.6-23.552 17.408-27.648 6.144q-23.552-4.096-30.72-29.696t-9.216-60.416-10.24-50.176q-13.312-24.576-80.896-24.576-28.672 0-67.584 4.096-79.872 8.192-144.384 40.96t-103.424 69.632-82.944 94.208q-106.496 136.192-201.728 329.728-3.072 6.144-11.264 23.552t-12.288 25.6-9.216 24.576-8.192 28.672-3.072 26.624z" />
<glyph unicode="&#xe838;" glyph-name="grooveshark" d="M0 448q0 139.264 68.608 257.024t186.368 186.368 257.024 68.608 257.024-68.608 186.368-186.368 68.608-257.024-68.608-257.024-186.368-186.368-257.024-68.608-257.024 68.608-186.368 186.368-68.608 257.024zM132.096 448q0-66.56 36.864-78.848 5.12-2.048 17.408-4.096 43.008-1.024 87.040 40.96 41.984 36.864 59.392 92.16 25.6 78.848 10.24 204.8-2.048 12.288-2.048 17.408-3.072 6.144 0 9.216 1.024 3.072 13.312-1.024 38.912-10.24 79.872-29.696 47.104-21.504 104.448-71.68 46.080-39.936 89.088-91.136 33.792-39.936 81.92-106.496 41.984-58.368 90.112-78.848 29.696-10.24 49.152-7.168t29.696 20.48 15.36 37.888 4.096 46.080q0 49.152-12.288 98.304-3.072 12.288-8.192 28.672-14.336 44.032-41.984 86.016-53.248 80.896-138.24 126.976t-182.272 46.080q-67.584 0-128-22.528-81.92-28.672-143.36-91.136t-91.136-145.408q-1.024-5.12-4.096-14.336t-5.12-14.336q-12.288-51.2-11.264-98.304z" />
<glyph unicode="&#xe839;" glyph-name="star-empty" horiz-adv-x="950" d="M0 590.336q0 21.504 31.744 26.624l286.72 40.96 129.024 260.096q11.264 23.552 27.648 23.552t28.672-23.552l128-260.096 286.72-40.96q32.768-5.12 32.768-26.624 0-12.288-15.36-27.648l-207.872-201.728 49.152-285.696q1.024-4.096 1.024-12.288 0-28.672-23.552-28.672-10.24 0-22.528 7.168l-257.024 135.168-256-135.168q-13.312-7.168-23.552-7.168-11.264 0-17.408 9.216t-6.144 19.456q0 4.096 1.024 12.288l49.152 285.696-207.872 201.728q-14.336 15.36-14.336 27.648zM125.952 555.52l175.104-168.96-41.984-240.64 216.064 113.664 216.064-113.664-41.984 240.64 175.104 168.96-240.64 35.84-108.544 218.112-107.52-218.112z" />
<glyph unicode="&#xe83a;" glyph-name="star-half" horiz-adv-x="950" d="M1.024 596.48q5.12 16.384 30.72 20.48l286.72 40.96 129.024 260.096q11.264 23.552 27.648 23.552t28.672-23.552l128-260.096 286.72-40.96q25.6-4.096 30.72-20.48t-13.312-33.792l-207.872-201.728 49.152-285.696q3.072-19.456-3.072-29.696t-19.456-11.264q-9.216 0-22.528 7.168l-257.024 135.168-256-135.168q-13.312-7.168-23.552-7.168-12.288 0-19.456 11.264t-3.072 29.696l49.152 285.696-207.872 201.728q-18.432 18.432-13.312 33.792zM475.136 259.584l33.792-17.408 182.272-96.256-34.816 202.752-7.168 37.888 28.672 26.624 146.432 142.336-202.752 29.696-37.888 6.144-17.408 34.816-91.136 183.296v-549.888z" />
<glyph unicode="&#xe83b;" glyph-name="related-left" horiz-adv-x="593" d="M93.184 448l456.704-457.728-37.888-37.888-495.616 495.616 495.616 495.616 37.888-37.888-456.704-457.728z" />
<glyph unicode="&#xe83c;" glyph-name="close" horiz-adv-x="702" d="M0 181.76q0 36.864 26.624 63.488l199.68 199.68-199.68 200.704q-26.624 25.6-26.624 62.464t26.624 62.464 62.464 25.6 62.464-25.6l200.704-200.704 199.68 200.704q25.6 25.6 62.464 25.6t62.464-25.6 25.6-62.464-25.6-62.464l-199.68-200.704 199.68-199.68q25.6-26.624 25.6-63.488t-25.6-62.464-62.464-25.6-62.464 25.6l-199.68 199.68-200.704-199.68q-25.6-25.6-62.464-25.6t-62.464 25.6q-26.624 26.624-26.624 62.464z" />
<glyph unicode="&#xe83d;" glyph-name="read-down" horiz-adv-x="887" d="M64.512 673.28l378.88-364.544 380.928 364.544q22.528 26.624 49.152 0 26.624-22.528 0-49.152l-405.504-401.408q-22.528-22.528-49.152 0l-405.504 401.408q-26.624 26.624 0 49.152 24.576 24.576 51.2 0z" />
<glyph unicode="&#xe900;" glyph-name="close-mobile" d="M59.328-53.399c4.608 0 9.184 1.856 12.512 5.152l440.32 440.32 440.096-440.096c3.296-3.296 7.872-5.152 12.48-5.152s9.184 1.856 12.512 5.152l21.568 21.6c3.328 3.328 5.152 7.904 5.152 12.512 0 4.576-1.824 9.184-5.152 12.48l-440.064 440.096 440.32 440.32c3.296 3.296 5.152 7.904 5.152 12.48 0 4.608-1.856 9.184-5.152 12.512l-21.824 21.824c-3.328 3.328-7.904 5.152-12.512 5.152s-9.184-1.824-12.48-5.152l-440.352-440.32-440.32 440.32c-3.296 3.328-7.904 5.152-12.48 5.152-4.608 0-9.184-1.824-12.512-5.152l-21.6-21.6c-3.296-3.296-5.12-7.904-5.12-12.48 0-4.608 1.824-9.184 5.12-12.512l440.32-440.32-440.32-440.32c-3.296-3.296-5.12-7.904-5.12-12.48 0-4.608 1.824-9.184 5.12-12.512l21.856-21.824c3.296-3.296 7.904-5.152 12.48-5.152z" />
<glyph unicode="&#xe901;" glyph-name="modal-back" d="M768.384 902.4c-0.125 6.316-2.69 12.009-6.788 16.196l-32.956 35.324c-3.663 4.324-9.097 7.051-15.168 7.051s-11.505-2.727-15.144-7.022l-487.128-489.437c-4.088-4.193-6.609-9.93-6.609-16.256s2.521-12.063 6.614-16.261l487.291-489.595c3.652-4.345 9.090-7.087 15.168-7.087s11.516 2.742 15.143 7.056l32.985 35.358c4.088 4.193 6.609 9.93 6.609 16.256s-2.521 12.063-6.614 16.261l-437.243 437.755 437.056 438.080c4.011 4.28 6.549 9.983 6.783 16.274z" />
<glyph unicode="&#xe902;" glyph-name="modal-close" d="M1024-6.912c-0.038 6.495-2.671 12.369-6.913 16.641l-438.399 438.271 438.912 438.208c4.242 4.278 6.864 10.169 6.864 16.672s-2.621 12.394-6.865 16.674l-33.406 33.342c-4.281 4.261-10.185 6.896-16.704 6.896s-12.423-2.634-16.705-6.896l-438.783-438.207-438.848 438.208c-4.281 4.261-10.185 6.896-16.704 6.896s-12.423-2.634-16.705-6.896l-33.343-33.343c-4.242-4.278-6.864-10.169-6.864-16.672s2.621-12.394 6.865-16.674l438.718-438.206-438.72-438.272c-4.258-4.271-6.89-10.164-6.89-16.672s2.632-12.401 6.891-16.673l33.407-33.343c4.288-4.246 10.19-6.869 16.704-6.869s12.416 2.623 16.706 6.871l438.782 438.206 438.72-438.208c4.288-4.246 10.19-6.869 16.704-6.869s12.416 2.623 16.706 6.871l33.406 33.342c4.005 4.241 6.468 9.977 6.468 16.288 0 0.146-0.001 0.292-0.004 0.438z" />
<glyph unicode="&#xe906;" glyph-name="line" d="M826.24 539.52c14.848 0 26.88-12.16 26.88-26.88s-12.032-26.88-26.88-26.88h-74.88v-48h74.88c14.848 0 26.88-12.032 26.88-26.88 0-14.72-12.032-26.88-26.88-26.88h-101.76c-14.72 0-26.752 12.16-26.752 26.88v203.52c0 14.72 12.032 26.88 26.88 26.88h101.76c14.72 0 26.752-12.16 26.752-26.88 0-14.848-12.032-26.88-26.88-26.88h-74.88v-48h74.88zM661.76 410.88c0-11.52-7.424-21.76-18.432-25.472-2.752-0.896-5.632-1.28-8.512-1.28-8.96 0-16.64 3.84-21.76 10.688l-104.256 141.504v-125.44c0-14.72-11.904-26.88-26.88-26.88-14.72 0-26.688 12.16-26.688 26.88v203.52c0 11.52 7.36 21.76 18.304 25.408 2.56 0.96 5.76 1.408 8.32 1.408 8.32 0 16-4.48 21.12-10.88l105.024-142.016v126.080c0 14.72 12.032 26.88 26.88 26.88 14.72 0 26.88-12.16 26.88-26.88v-203.52zM416.768 410.88c0-14.72-12.032-26.88-26.88-26.88-14.72 0-26.752 12.16-26.752 26.88v203.52c0 14.72 12.032 26.88 26.88 26.88 14.72 0 26.752-12.16 26.752-26.88v-203.52zM311.552 384h-101.76c-14.72 0-26.88 12.16-26.88 26.88v203.52c0 14.72 12.16 26.88 26.88 26.88 14.848 0 26.88-12.16 26.88-26.88v-176.64h74.88c14.848 0 26.88-12.032 26.88-26.88 0-14.72-12.032-26.88-26.88-26.88zM1024 520.32c0 229.12-229.76 415.616-512 415.616s-512-186.496-512-415.616c0-205.312 182.144-377.344 428.16-409.92 16.64-3.584 39.36-11.008 45.12-25.216 5.12-12.8 3.392-32.64 1.664-46.080l-7.040-43.52c-1.92-12.8-10.24-50.56 44.8-27.52s295.040 174.080 402.56 297.6c73.536 80.576 108.736 163.136 108.736 254.656z" />
<glyph unicode="&#xe907;" glyph-name="viber" d="M887.936 860.16c-25.472 23.424-128.256 98.112-357.376 99.2 0 0-270.080 16.192-401.728-104.576-73.28-73.344-99.072-180.48-101.76-313.6-2.752-132.864-6.272-382.080 234.048-449.664h0.192l-0.192-103.168s-1.472-41.728 25.984-50.24c33.28-10.24 52.736 21.504 84.48 55.68 17.472 18.752 41.472 46.336 59.648 67.456 164.288-13.824 290.688 17.728 305.024 22.4 33.152 10.88 220.8 34.816 251.392 284.032 31.488 256.96-15.232 419.392-99.712 492.672zM915.776 386.048c-26.24-208-178.56-221.248-206.080-230.208-12.16-3.84-123.52-31.488-263.040-22.4 0 0-104.32-125.44-136.32-158.080-5.12-5.12-11.52-7.040-15.36-6.144-5.76 1.28-7.040 7.68-7.040 17.28l0.64 170.88c-0.64 0 0 0 0 0-203.52 56.96-191.36 268.8-188.8 380.16 1.92 110.72 23.040 201.6 85.12 263.040 111.424 101.184 341.184 85.824 341.184 85.824 193.792-0.64 286.72-59.072 308.16-78.72 71.424-61.12 107.84-207.552 81.28-422.080zM330.24 747.52c10.368 0 19.648-4.672 26.88-13.248 0.128-0.128 24.768-29.696 35.392-44.16 10.048-13.632 23.488-35.392 30.336-47.552 12.16-21.76 4.48-44.032-7.36-53.248l-24.128-19.2c-12.16-9.728-10.688-27.904-10.688-27.904s35.84-134.72 168.96-168.64c0 0 18.112-1.664 27.904 10.496l19.2 24.32c9.088 12.16 31.36 19.84 53.12 7.68 12.16-6.4 33.92-19.84 47.616-30.080 14.464-10.24 44.032-35.2 44.16-35.2 14.080-11.52 17.28-29.44 7.68-47.36v-0.64c-9.856-17.28-23.040-33.28-39.808-48.64h-0.32c-13.44-11.52-26.88-17.92-40.32-19.2-1.28 0-3.2-0.64-5.76 0-5.76 0-11.52 1.28-17.28 2.56v0.64c-20.48 5.76-54.4 20.48-110.72 51.84-36.48 20.48-67.2 40.96-93.44 62.080-13.44 10.88-27.52 23.040-41.6 37.12l-3.264 1.216-2.56 2.56c-14.080 14.080-26.24 28.16-37.12 41.792-20.48 25.984-40.96 56.64-61.44 93.44-31.36 56.32-46.080 90.24-51.84 110.72h-0.64c-1.92 5.76-3.2 11.52-2.56 17.28-0.64 2.56 0 4.48 0 5.952 1.28 12.8 8.064 26.24 19.52 40.32h0.192c15.168 16.64 31.488 30.080 48.896 39.808 7.040 3.84 14.080 5.76 20.48 5.76h0.64zM504.96 776.704h4.992l3.2-0.128h0.832l3.84-0.192h21.76l5.76-0.64h3.2l6.4-0.64h1.28l4.48-0.64h0.64l3.2-0.64c1.92 0 3.2-0.64 4.48-0.64h3.84l3.2-1.28 5.12-1.28 1.28-0.64h1.92l1.92-0.64h1.28l3.2-0.64 3.84-1.28 2.56-0.64 1.28-0.64c1.28 0 2.56-0.64 3.84-0.64l3.84-1.28 5.12-1.92 2.56-1.28 5.76-2.56 3.84-1.28 3.84-1.92 2.56-0.64 1.28-0.64 3.2-1.28 3.84-1.92 1.92-0.64 1.92-1.28 2.56-1.28 1.92-1.28 3.84-1.92 1.92-1.28 3.2-1.92 1.92-0.64 3.2-1.92 0.64-0.64 1.92-1.28 3.84-3.2 3.84-2.56 1.28-0.64 1.92-1.28 3.2-3.2 2.56-1.92 1.92-1.28 0.64-0.64 1.28-0.64 3.2-2.56 3.2-3.2 3.84-2.56 1.28-0.64 14.72-14.72c0.64-0.64 1.92-1.92 2.56-3.2l1.28-1.28 7.040-8.32 1.92-2.56c0.64-0.64 0.64-1.28 1.28-1.28l3.84-5.76 1.92-1.92 3.84-5.12 3.2-5.12 1.92-3.84 2.56-4.48 10.24-20.48 1.28-3.2c2.56-5.76 4.48-11.52 7.040-17.92 3.2-8.32 5.76-17.28 7.68-26.88 1.92-7.040 3.2-13.44 4.48-20.48l1.28-11.52 1.92-12.8c0.64-5.12 1.28-10.88 1.28-16 0.64-5.12 0.64-10.24 0.64-15.36v-10.88c0-0.64-0.32-1.28-0.64-1.92-0.64-1.28-1.28-1.92-2.56-3.2-0.896-0.64-2.112-1.92-3.392-1.92-1.28-0.64-2.56-0.64-3.84-0.64h-1.92c-1.28 0-2.56 0.64-3.84 1.28s-2.56 1.28-3.2 2.56c-0.64 1.28-1.92 2.56-2.56 3.84s-1.28 2.56-1.28 3.84v15.296c-0.64 8.96-1.28 18.176-2.56 27.264-0.64 6.272-1.92 12.16-2.56 17.92 0 3.2-0.64 6.272-1.28 8.96l-1.28 6.4-1.536 5.76-0.64 3.84-1.92 6.4c-1.28 5.12-3.2 10.24-5.12 15.36-1.28 3.84-2.56 7.040-4.48 10.24l-1.28 3.2-5.76 11.52-1.28 1.92c-2.56 5.76-5.76 11.52-9.6 16.64l-1.92 3.2h-8.576l-2.752 3.84c-2.304 3.84-4.864 7.040-7.68 10.24l-5.312 6.4-0.64 0.64-1.92 2.432-1.536 1.92-3.2 3.2-0.64 1.28-3.008 2.56-1.92 1.92-3.52 3.2-1.728 1.6-2.56 2.56c-0.64 0.64-1.92 1.92-3.2 2.56l-3.264 2.624-1.28 0.64-2.56 1.92-5.12 4.096-1.28 0.64-2.56 2.304c0 0.64-0.64 0.64-1.28 0.64l-1.92 1.92v0.64l-1.28 0.64-2.56 1.6-1.92 1.28-3.2 1.92-2.56 1.92-2.56 1.28h-3.84l-0.832 0.64-2.816 1.472-0.32 0.64-3.2 1.6h-0.512l-1.92 0.64-1.088 0.64-1.92 0.64-0.448 0.448-1.28 0.64-2.24 1.28-1.28 0.64-3.84 1.28-3.2 1.28-5.76 0.64-1.92 1.28c-0.64 0.384-1.28 0.64-1.92 0.64l-1.28 0.64c-1.28 0.448-1.92 0.64-3.2 1.28l-1.28 0.64h-1.28l-3.84 1.92-1.92 0.64h-3.904c-0.32 0-0.768 0.192-1.28 0.32h-3.84l-1.92 0.64h-0.64l-1.92 0.64h-1.728c-1.088 0.64-1.92 0.64-3.008 0.64l-0.384 0.64-2.56 0.64c-1.28 0.64-2.368 0.64-3.584 0.64l-1.92 0.64-2.112 0.64-1.92 0.64-2.56 0.64h-2.624l-7.68 1.152h-3.84l-4.992 0.64h-3.2l-2.944 0.384h-1.28l-2.304 0.64h-12.16l-0.448 0.64h-2.56c-1.28 0-2.752 0.64-3.84 1.28-1.28 0.64-2.56 1.28-3.456 2.56l-1.28 1.92c-1.28 1.28-1.28 2.56-1.92 3.84s-0.64 2.56-0.64 3.84c0 1.28 0 2.56 0.64 3.84s1.28 2.56 2.56 3.2c0.64 1.28 1.92 1.92 3.2 2.56s2.56 1.28 3.84 1.28h2.56zM528.64 709.504l1.536-0.128 2.56-0.256c0.384 0 0.768 0 1.28-0.128 0.96 0 1.92-0.192 3.2-0.256l2.56-0.32 1.024-0.64 1.92-0.64 2.048-0.64 1.92-0.64h1.28l1.792-0.64 3.008-0.64 2.368-0.64 1.152-0.64h3.072l5.12-1.28 5.76-1.92s0.64 0 0.64-0.64l5.76-1.92c0.64 0 1.28-0.64 1.92-0.64 0.32 0 0.64-0.64 1.088-0.64l2.752-1.28h1.28l3.84-1.28 2.112-1.28 1.92-1.28 4.672-1.92 2.56-0.64 1.28-1.28c1.92-0.64 3.84-1.92 5.76-2.56l4.096-2.56 2.112-1.28c1.92-1.28 3.456-1.92 5.12-3.2l1.28-0.64 1.728-1.28 0.96-0.64 3.2-1.92 1.6-1.28 2.752-1.92 2.56-1.28 1.92-1.28 2.56-1.92c0.64-0.64 0.96-0.64 1.472-1.28 0.384-0.64 0.64-0.64 1.088-1.28l1.408-1.28 1.536-1.28 9.6-9.6c0-0.64 0.64-1.28 1.28-1.28l2.56-2.56 1.28-1.92 1.28-1.28 1.92-2.56 1.92-1.92 3.84-5.12 0.64-1.28 2.56-3.2 2.56-5.12c0.64-0.64 0.64-1.28 1.28-2.56l1.92-3.2 0.64-0.64 1.28-2.56 1.28-1.92c0.64-0.64 0.64-1.28 1.28-1.92l1.28-1.92 2.56-5.12 0.64-1.92c0.64-1.92 1.92-3.2 2.56-5.12 0-0.64 0.64-1.28 0.64-1.92l1.92-5.12 2.56-8.32c0-0.64 0.64-1.92 0.64-2.56l1.92-5.76 1.92-7.68 1.92-10.24c0.64-3.2 0.64-5.76 1.28-8.96 0.64-5.12 1.28-10.24 1.28-15.36l0.64-8.96v-7.040c0-0.64 0-1.28-0.64-1.92l-1.856-1.856c-1.28-0.96-1.92-1.92-3.2-2.56s-2.56-1.28-3.84-1.728c-1.28-0.64-3.2-0.64-4.48-0.64s-2.56 0.64-3.84 1.28c-0.64 0-1.28 0.64-1.92 0.896-1.28 0.64-2.56 1.664-3.2 2.816-1.28 1.28-1.92 2.56-1.92 3.84l-0.64 1.92v13.376c0 5.632-0.64 10.88-1.28 16.384-0.64 5.76-1.92 12.16-3.2 17.92-1.28 3.84-1.92 7.68-3.2 11.136l-1.28 3.84-1.28 3.2-0.64 1.28-1.92 5.12-5.12 10.24-2.944 5.12v0.64l-1.28 2.048-1.28 1.6-1.92 3.2-5.76 7.68c-1.92 2.56-3.84 5.12-6.016 7.552-0.64 0.64-1.28 1.28-1.28 1.92l-1.92 1.92-1.28 0.64-1.28 1.152v6.208l-5.12 4.864-3.2 2.88v0.64l-1.28 1.28-1.6 1.28-0.64 0.64c0 0.64-0.64 0.64-1.28 0.64l-1.92 0.64-0.64 0.64-2.56 1.92-1.28 1.28c-0.512 0.64-0.96 0.64-1.28 0.64l-2.56 1.92-0.64 0.64-2.56 1.28-0.448 0.64-1.92 1.28-1.28 0.64-2.56 2.56h-0.64c-1.28 1.28-2.56 1.92-4.48 2.56l-1.92 1.28-1.28 0.64-0.64 0.64-1.92 1.28-1.92 0.64-2.56 1.28-1.92 0.64-0.64 0.64-2.368 0.64v0.64l-3.84 1.28-3.84 1.92h-2.56c-1.28 0.64-1.92 0.64-3.2 1.28h-1.984l-1.92 0.64h-1.92l-1.92 0.64-1.28 0.64h-2.56l-2.56 0.64-1.28 0.64h-7.040l-2.944 0.64h-14.976l-1.92 0.64c-1.28 0.64-2.56 1.28-3.84 2.56-0.64 1.28-1.92 2.56-2.56 3.84s-1.28 2.56-1.28 3.84v3.84c0.192 1.92 0.64 3.2 1.28 4.48 0.32 0.64 0.64 1.28 1.28 1.92 0.768 1.28 1.92 2.56 3.2 3.2 0.64 0.64 1.28 0.64 1.92 1.28 1.28 0.64 2.56 0.64 3.84 0.64h2.56zM547.968 640c0.64 0 1.28 0 1.92-0.128 0.64 0 1.28 0 1.92-0.128l2.176-0.192c4.48-0.384 9.088-1.024 13.568-1.92l4.48-1.024 1.088-0.32 4.864-1.28 2.56-0.832 1.92-0.64c1.92-0.64 3.84-1.92 5.76-2.56l0.64-0.64 7.68-3.84c0.64-0.64 1.28-0.64 1.92-1.28s1.92-1.28 2.56-1.92c2.56-1.28 4.48-3.2 6.4-4.48l4.48-3.84 3.84-3.84 2.56-3.2 2.56-2.56 1.92-2.56 3.84-5.76 3.2-5.76 2.56-5.12 1.92-4.48c1.92-4.48 2.56-8.32 3.84-12.8 1.28-3.84 1.92-8.32 2.56-12.16l0.64-6.4 0.64-5.76v-2.56c0-1.92-0.64-3.2-1.28-4.48s-1.92-3.2-3.2-3.84c-1.28-1.28-2.56-1.92-4.48-2.56-1.28-0.64-2.56-0.64-3.84-0.64s-2.56 0-3.84 0.64l-4.48 1.92c-1.28 1.28-2.56 1.92-3.84 3.84-0.64 1.28-1.28 2.56-1.92 4.48v7.040l-0.64 4.48-0.64 5.12-0.64 4.48-0.64 2.56c0 0.64-0.64 1.92-0.64 2.56-1.28 5.12-3.84 10.24-6.4 15.36l-2.56 2.56-1.92 2.56-1.92 1.92-0.64 1.28-3.2 2.56-2.56 2.56-2.56 1.92c-0.64 0.64-1.28 0.64-2.56 1.28l-3.84 2.56-3.84 1.92h-0.64l-3.264 1.344-3.84 1.28-3.84 0.64h-3.2l-1.92 0.64-1.536 0.32h-1.92l-2.56 0.64h-10.88l-0.64 3.2h-1.664c-1.28 0.192-2.304 0.64-3.392 1.28-1.472 0.896-2.752 1.92-3.84 3.392-0.768 1.28-1.472 2.56-1.92 3.84-0.32 1.28-0.512 2.56-0.512 3.84 0 1.6 0 3.2 0.64 4.864s1.28 3.008 2.56 4.224l2.56 1.92c1.28 0.64 2.56 1.28 3.84 1.28l2.624 3.2h1.28z" />
<glyph unicode="&#xe908;" glyph-name="dailymotion" d="M600.235 477.31c-74.837 0-132.437-60.885-132.437-132.693 0-74.795 57.6-131.627 138.88-131.627l-0.683-0.085c67.84 0 124.8 55.893 124.8 129.707 0 76.8-57.003 134.699-130.645 134.699zM0 959.998v-1024h1024v1024h-1024zM882.901 72.233h-152.576v60.16c-46.933-46.080-94.848-62.72-158.507-62.72-64.939 0-120.832 21.12-167.68 63.36-61.781 54.4-93.781 126.72-93.781 210.603 0 76.8 29.867 145.664 85.76 199.424 49.92 48.896 110.72 73.813 178.56 73.813 64.853 0 114.773-21.888 150.613-67.84v233.6l157.568 32.597v-742.997z" />
<glyph unicode="&#xe909;" glyph-name="twitch" d="M89.131 959.998l-66.731-178.133v-712.277h244.736v-133.589h133.632l133.419 133.632h200.32l267.093 267.008v623.36h-912.469zM178.133 871.038h734.507v-489.771l-155.819-155.819h-244.821l-133.419-133.419v133.419h-200.448v645.589zM423.040 425.726h88.96v267.093h-88.96v-267.093zM667.733 425.726h89.003v267.093h-89.003v-267.093z" />
<glyph unicode="&#xe90a;" glyph-name="xing" d="M776.021 959.998c-22.059 0-31.616-13.867-39.552-28.16 0 0-318.080-564.224-328.619-582.699 0.64-1.024 209.877-384.981 209.877-384.981 7.253-13.141 18.603-28.16 41.259-28.16h147.371c9.003 0 16 3.328 19.755 9.387 3.797 6.443 3.797 14.763-0.384 22.869l-208.171 380.416c-0.171 0.256-0.171 0.683 0 0.939l327.040 578.133c4.053 8.149 4.139 16.512 0.256 22.827-3.797 6.101-10.709 9.429-19.584 9.429h-149.248zM155.648 757.758c-9.003 0-16.427-3.157-20.181-9.216-3.84-6.357-3.328-14.464 0.853-22.656l99.84-172.8c0.171-0.427 0.171-0.683 0-0.896l-156.8-277.035c-4.224-8.021-3.968-16.256 0-22.571 3.627-6.059 10.197-9.984 19.2-9.984h147.669c22.101 0 32.683 14.848 40.32 28.459l159.317 281.984-101.461 177.28c-7.339 13.44-18.517 28.117-41.045 28.117h-147.712v-0.683z" />
<glyph unicode="&#xe90b;" glyph-name="ebay" horiz-adv-x="2112" d="M534.252 436.592v431.86h105.335v-265.621c51.795 61.72 123.053 79.534 193.285 79.534 117.626 0 248.236-79.341 248.236-250.603 0-20.444-1.315-40.127-5.26-58.633 21.067 83.645 111.837 114.54 254.191 117.96 44.764 1.578 96.103 1.578 136.922 1.578v11.862c0 77.693-48.806 109.183-134.292 109.183-63.201 0-109.28-26.327-114.54-71.091h-111.91c11.932 113.225 131.662 142.209 235.779 142.209 93.403 0 175.111-23.697 211.985-89.528l-38.259 73.721h123.772l180.371-362.084 180.371 362.157h109.114l-326.525-641.212h-118.152l93.929 179.056-204.524 384.466c11.406-22.382 17.551-48.709 17.551-81.638v-215.93c0-30.369 0.886-60.571 3.516-88.213h-97.778c-2.63 22.382-4.042 44.764-4.042 67.146-52.917-64.419-115.855-84.268-203.639-84.268-129.918 0-199.431 68.461-199.431 148.784 0 13.177 1.315 24.915 3.253 35.559-26.327-109.377-119.371-183.098-242.88-183.098-76.378 0-148.687 27.642-193.119 81.638 0-21.067-1.315-43.352-3.516-64.419h-103.566c1.744 34.244 3.516 75.037 3.516 109.28v92.158h-423.967c5.716-96.103 71.81-152.729 162.653-152.729 63.035 0 118.941 26.327 137.641 81.638h108.851c-21.067-113.225-141.323-151.414-244.887-151.414-188.095-1.841-271.502 102.345-271.502 241.921 0 153.948 86.206 255.434 273.511 255.434 148.161 0 257.178-77.763 258.064-246.299v-0.429zM1336.28 420.522c-96.103-2.99-155.359-20.444-155.359-83.382 0-40.819 31.587-85.154 114.54-85.154 110.595 0 169.851 60.571 169.851 159.234v11.406c-39.504 0-86.898-0.526-130.25-1.938h1.052zM804.345 255.931c97.444 0 164.661 70.758 164.661 177.312s-67.409 177.312-166.169 177.312c-97.444 0-165.906-70.758-165.906-177.312s67.146-177.312 164.591-177.312h2.63zM422.512 476.622c-3.848 98.76-74.966 135.704-151.414 135.704-82.856 0-148.687-41.608-159.304-135.704h310.719z" />
<glyph unicode="&#xea0a;" glyph-name="plus" d="M992 576h-352v352c0 17.672-14.328 32-32 32h-192c-17.672 0-32-14.328-32-32v-352h-352c-17.672 0-32-14.328-32-32v-192c0-17.672 14.328-32 32-32h352v-352c0-17.672 14.328-32 32-32h192c17.672 0 32 14.328 32 32v352h352c17.672 0 32 14.328 32 32v192c0 17.672-14.328 32-32 32z" />
<glyph unicode="&#xea0b;" glyph-name="minus" d="M0 544v-192c0-17.672 14.328-32 32-32h960c17.672 0 32 14.328 32 32v192c0 17.672-14.328 32-32 32h-960c-17.672 0-32-14.328-32-32z" />
<glyph unicode="&#xf02f;" glyph-name="print" horiz-adv-x="951" d="M219.429 82.286h512v146.286h-512v-146.286zM219.429 448h512v219.429h-91.429c-30.286 0-54.857 24.571-54.857 54.857v91.429h-365.714v-365.714zM877.714 411.429c0 20-16.571 36.571-36.571 36.571s-36.571-16.571-36.571-36.571 16.571-36.571 36.571-36.571 36.571 16.571 36.571 36.571zM950.857 411.429v-237.714c0-9.714-8.571-18.286-18.286-18.286h-128v-91.429c0-30.286-24.571-54.857-54.857-54.857h-548.571c-30.286 0-54.857 24.571-54.857 54.857v91.429h-128c-9.714 0-18.286 8.571-18.286 18.286v237.714c0 60 49.714 109.714 109.714 109.714h36.571v310.857c0 30.286 24.571 54.857 54.857 54.857h384c30.286 0 72-17.143 93.714-38.857l86.857-86.857c21.714-21.714 38.857-63.429 38.857-93.714v-146.286h36.571c60 0 109.714-49.714 109.714-109.714z" />
<glyph unicode="&#xf232;" glyph-name="whatsapp" horiz-adv-x="878" d="M562.857 403.429q7.429 0 55.714-25.143t51.143-30.286q1.143-2.857 1.143-8.571 0-18.857-9.714-43.429-9.143-22.286-40.571-37.429t-58.286-15.143q-32.571 0-108.571 35.429-56 25.714-97.143 67.429t-84.571 105.714q-41.143 61.143-40.571 110.857v4.571q1.714 52 42.286 90.286 13.714 12.571 29.714 12.571 3.429 0 10.286-0.857t10.857-0.857q10.857 0 15.143-3.714t8.857-15.714q4.571-11.429 18.857-50.286t14.286-42.857q0-12-19.714-32.857t-19.714-26.571q0-4 2.857-8.571 19.429-41.714 58.286-78.286 32-30.286 86.286-57.714 6.857-4 12.571-4 8.571 0 30.857 27.714t29.714 27.714zM446.857 100.571q72.571 0 139.143 28.571t114.571 76.571 76.571 114.571 28.571 139.143-28.571 139.143-76.571 114.571-114.571 76.571-139.143 28.571-139.143-28.571-114.571-76.571-76.571-114.571-28.571-139.143q0-116 68.571-210.286l-45.143-133.143 138.286 44q90.286-59.429 197.143-59.429zM446.857 890.286q87.429 0 167.143-34.286t137.429-92 92-137.429 34.286-167.143-34.286-167.143-92-137.429-137.429-92-167.143-34.286q-111.429 0-208.571 53.714l-238.286-76.571 77.714 231.429q-61.714 101.714-61.714 222.286 0 87.429 34.286 167.143t92 137.429 137.429 92 167.143 34.286z" />
<glyph unicode="&#xf2c6;" glyph-name="telegram" d="M679.429 213.143l84 396c7.429 34.857-12.571 48.571-35.429 40l-493.714-190.286c-33.714-13.143-33.143-32-5.714-40.571l126.286-39.429 293.143 184.571c13.714 9.143 26.286 4 16-5.143l-237.143-214.286-9.143-130.286c13.143 0 18.857 5.714 25.714 12.571l61.714 59.429 128-94.286c23.429-13.143 40-6.286 46.286 21.714zM1024 448c0-282.857-229.143-512-512-512s-512 229.143-512 512 229.143 512 512 512 512-229.143 512-512z" />
</font></defs></svg>